\relax 
\providecommand\hyper@newdestlabel[2]{}
\providecommand\babel@aux[2]{}
\@nameuse{bbl@beforestart}
\providecommand\HyperFirstAtBeginDocument{\AtBeginDocument}
\HyperFirstAtBeginDocument{\ifx\hyper@anchor\@undefined
\global\let\oldcontentsline\contentsline
\gdef\contentsline#1#2#3#4{\oldcontentsline{#1}{#2}{#3}}
\global\let\oldnewlabel\newlabel
\gdef\newlabel#1#2{\newlabelxx{#1}#2}
\gdef\newlabelxx#1#2#3#4#5#6{\oldnewlabel{#1}{{#2}{#3}}}
\AtEndDocument{\ifx\hyper@anchor\@undefined
\let\contentsline\oldcontentsline
\let\newlabel\oldnewlabel
\fi}
\fi}
\global\let\hyper@last\relax 
\gdef\HyperFirstAtBeginDocument#1{#1}
\providecommand\HyField@AuxAddToFields[1]{}
\providecommand\HyField@AuxAddToCoFields[2]{}
\providecommand \oddpage@label [2]{}
\babel@aux{english}{}
\@writefile{toc}{\contentsline {chapter}{\numberline {1}Verification with UVM}{1}{chapter.1}\protected@file@percent }
\@writefile{lof}{\addvspace {10\p@ }}
\@writefile{lot}{\addvspace {10\p@ }}
\@writefile{loa}{\addvspace {10\p@ }}
\@writefile{toc}{\contentsline {section}{\numberline {1.1}Verification of the adder}{1}{section.1.1}\protected@file@percent }
\@writefile{toc}{\contentsline {section}{\numberline {1.2}Verification of the MBE-Dadda tree multiplier}{2}{section.1.2}\protected@file@percent }
\@writefile{toc}{\contentsline {section}{\numberline {1.3}Verification of the entire floating point multiplier}{2}{section.1.3}\protected@file@percent }
\@writefile{toc}{\contentsline {section}{\numberline {1.4}Conclusion}{3}{section.1.4}\protected@file@percent }
\@writefile{lof}{\contentsline {figure}{\numberline {1.1}{\ignorespaces Adder simulation result\relax }}{4}{figure.caption.2}\protected@file@percent }
\providecommand*\caption@xref[2]{\@setref\relax\@undefined{#1}}
\newlabel{fig:sim1}{{1.1}{4}{Adder simulation result\relax }{figure.caption.2}{}}
\@writefile{lof}{\contentsline {figure}{\numberline {1.2}{\ignorespaces Adder simulation result with modified refmod\relax }}{4}{figure.caption.3}\protected@file@percent }
\newlabel{fig:sim2}{{1.2}{4}{Adder simulation result with modified refmod\relax }{figure.caption.3}{}}
\@writefile{lof}{\contentsline {figure}{\numberline {1.3}{\ignorespaces Dadda-tree multiplier simulation result\relax }}{5}{figure.caption.4}\protected@file@percent }
\newlabel{fig:sim3}{{1.3}{5}{Dadda-tree multiplier simulation result\relax }{figure.caption.4}{}}
\@writefile{lof}{\contentsline {figure}{\numberline {1.4}{\ignorespaces Floating point multiplier simulation result\relax }}{6}{figure.caption.5}\protected@file@percent }
\newlabel{fig:sim}{{1.4}{6}{Floating point multiplier simulation result\relax }{figure.caption.5}{}}
